B+
A
B-
C
B+
A
B+
B+
B+
B+
B+
B+
B+
A-
B+
C+
A-
C
B+
A-
B+
F
A
B+
B+
B
A-
A-
B-
B+
D+
D+
B+
B+
B+
B+
B+
A
B+
B+
C+
A
B+
B+
A
D+
A
B-
B-
B+
B-
B+
B+
B-
A
C+
A-
A
B+
B+
A
C
F
A
B+
C+
B+
B+
A-
A
A
B+
A
B+
B+
B-
D+
A
B+
A
B+
B+
B+
B-
A
C
A
B+
B+
B+
B
B+
B+
B+
B+
A
A
A
D+
B+
A
B-
B+
B
B-
B+
B+
A
A-
B+
B-
B
B+
B+
D+
B+
B+
B+
A
B+
B-
A
D+
B-
D+
A
A-
B+
A-
B-
A
A
B+
B+
A
B-
A
A
A
B+
D+
A
B+
A
D+
B+
A
A-
A
A
A
B+
A
A
B+
B+
A
D+
B+
D+
A
B+
B+
D+
B-
B-
C-
B-
B+
D+
B+
A
B+
B-
A
A
B+
A
F
B+
B+
C+
B+
A-
B-
B+
A
B+
A-
B+
D-
B+
B+
B+
A
D+
C+
B+
B+
F
B+
A
B+
B-
B+
B-
B+
B+
A
B+
B+
B+
A
B+
B+
B+
B+
A
B+
A
B+
B+
B+
B-
D+
B+
B-
B+
B+
B+
B+
B+
B+
B-
D+
B+
A
A
B+
C
A
B-
B+
B
D-
A
B+
D-
B+
B+
B+
A
A
B+
C+
B+
A
A-
B+
D+
B+
B+
A-
C
B+
A
A-
B-
B+
A
B+
B+
A
D+
A
B-
